{
    "s@s.com" : {
        "password" : "sd",
        "username" : "s@s"
    },
    "sd@sd.com" : {
        "password" : "sd",
        "username" : "sd@sd"
    },
    "sean.thomas@devere.com" : {
        "password" : "asd",
        "username" : "sean"
    },
    "sean.thorne@devere.com" : {
        "password" : "password",
        "username" : "sean"
    }
}